{
  "development": {
    "host": "localhost:3000",
    "token": "eyJhbGciOiJIUzI1NiIsInR5cCI6IkpXVCJ9.eyJlbWFpbCI6ImFAbWFpbC5ydSIsImV4cCI6MTU1OTI0OTAyMiwiZmlyc3ROYW1lIjoiIiwiaWQiOjIsImxhc3ROYW1lIjoiIiwicGhvbmUiOiIifQ.Y1cKTS1Ao2MEnrcP0k54SzAcauemEk9geiS8CdN5ieo",
    "username": "",
    "password": ""
  },
  "production": {
    "host": "163.172.135.36:3000",
    "username": "",
    "password": ""
  }
}
